{
    "documentoFiscal":[
        {
            "clasificadorId": 345,
            "descripcion": "FACTURA",
            "abreviatura": "TDFAC",
            "tipoClasificador": "tipo_documento_fiscal_id"
        },
        {
            "clasificadorId": 346,
            "descripcion": "NOTA CREDITO/DEBITO",
            "abreviatura": "TDNCD",
            "tipoClasificador": "tipo_documento_fiscal_id"
        },
        {
            "clasificadorId": 671,
            "descripcion": "NOTA FISCAL",
            "abreviatura": "TDFNF",
            "tipoClasificador": "tipo_documento_fiscal_id"
        },
        {
            "clasificadorId": 911,
            "descripcion": "BOLETA DE CONTINGENCIA",
            "abreviatura": "TDBCON",
            "tipoClasificador": "tipo_documento_fiscal_id"
        },
        {
            "clasificadorId": 925,
            "descripcion": "PRE VALORADA",
            "abreviatura": "TDFPREV",
            "tipoClasificador": "tipo_documento_fiscal_id"
        },
        {
            "clasificadorId": 995,
            "descripcion": "DOCUMENTO EQUIVALENTE",
            "abreviatura": "DOCEQ",
            "tipoClasificador": "tipo_documento_fiscal_id"
        }
    ]
}