[
    {
        "clasificadorId": 2104,
        "descripcion": "DIURNO",
        "abreviatura": "HA_DIURNO",
        "tipoClasificador": "horario_atencion_id"
    },
    {
        "clasificadorId": 2105,
        "descripcion": "NOCTURNO",
        "abreviatura": "HA_NOCTURNO",
        "tipoClasificador": "horario_atencion_id"
    }
]
