{
    "contribuyente": [
        {
            "id": 1,
            "nit": 1000867020,
            "name": "cofadena",
            "latitud": "-16.49276495837333",
            "longitud": "-68.13431397048339",
            "ubicacion": "ubicacion 1",
            "tipoUbicacion": "tipo ubicacion 1",
            "referenciaUbicacion": "referencia de ubicacion 1",
            "zonaFranca": true,
            "nombreUrbanizacion": "urbanizacion 1",
            "tipo": "oficina",
            "nombreEdificio": "edificio 1",
            "sinNombreEdificio": false,
            "piso": "3",
            "numeroDtoUOficina": "35",
            "sinNumeroDtoUOficina": false,
            "fotografiaDomicilio": "",
            "sucursales": "suscursal 1",
            "casaMatriz": true,
            "aprovacionContribuyente": true
        },
        {
            "id": 2,
            "nit": 2125254,
            "name": "Empresa publica Quipus",
            "latitud": "-16.49696217386524",
            "longitud": "-68.13276901809081",
            "ubicacion": "ubicacion 2",
            "tipoUbicacion": "tipo ubicacion 2",
            "referenciaUbicacion": "referencia de ubicacion 2",
            "zonaFranca": true,
            "nombreUrbanizacion": "urbanizacion 2",
            "tipo": "oficina",
            "nombreEdificio": "edificio 2",
            "sinNombreEdificio": false,
            "piso": "3",
            "numeroDtoUOficina": "35",
            "sinNumeroDtoUOficina": false,
            "fotografiaDomicilio": "",
            "sucursales": "suscursal 2",
            "casaMatriz": true,
            "aprovacionContribuyente": true
        },
        {
            "id": 3,
            "nit": 1020199024,
            "name": "MOLINO FABRICA DE FIDEOS AURORA",
            "latitud": "-16.496879876397408",
            "longitud": "-68.1292177733551",
            "ubicacion": "ubicacion 3",
            "tipoUbicacion": "tipo ubicacion 3",
            "referenciaUbicacion": "referencia de ubicacion 3",
            "zonaFranca": false,
            "nombreUrbanizacion": "urbanizacion 3",
            "tipo": "oficina",
            "nombreEdificio": "edificio 3",
            "sinNombreEdificio": false,
            "piso": "3",
            "numeroDtoUOficina": "35",
            "sinNumeroDtoUOficina": false,
            "fotografiaDomicilio": "",
            "sucursales": "suscursal 3",
            "casaMatriz": true,
            "aprovacionContribuyente": true
        },
        {
            "id": 4,
            "nit": 4836134016,
            "name": "SEGURITEX",
            "latitud": "-16.497836582298977",
            "longitud": "-68.13559070197448",
            "ubicacion": "ubicacion 1",
            "tipoUbicacion": "tipo ubicacion 4",
            "referenciaUbicacion": "referencia de ubicacion 4",
            "zonaFranca": false,
            "nombreUrbanizacion": "urbanizacion 4",
            "tipo": "oficina",
            "nombreEdificio": "edificio 4",
            "sinNombreEdificio": false,
            "piso": "3",
            "numeroDtoUOficina": "35",
            "sinNumeroDtoUOficina": false,
            "fotografiaDomicilio": "",
            "sucursales": "suscursal 4",
            "casaMatriz": true,
            "aprovacionContribuyente": true
        },
        {
            "id": 5,
            "nit": 1345123412,
            "name": "BISA SEGUROS Y REASEGUROS S.A. ",
            "latitud": "-16.495203057867105",
            "longitud": "-68.1369639929901",
            "ubicacion": "ubicacion 5",
            "tipoUbicacion": "tipo ubicacion 5",
            "referenciaUbicacion": "referencia de ubicacion 5",
            "zonaFranca": false,
            "nombreUrbanizacion": "urbanizacion 5",
            "tipo": "oficina",
            "nombreEdificio": "edificio 5",
            "sinNombreEdificio": false,
            "piso": "3",
            "numeroDtoUOficina": "35",
            "sinNumeroDtoUOficina": false,
            "fotografiaDomicilio": "",
            "sucursales": "suscursal 5",
            "casaMatriz": true,
            "aprovacionContribuyente": true
        },
        {
            "id": 6,
            "nit": 10008670201,
            "name": "cofadena1",
            "latitud": "-16.49276495837333",
            "longitud": "-68.13431397048339",
            "ubicacion": "ubicacion 6",
            "tipoUbicacion": "tipo ubicacion 6",
            "referenciaUbicacion": "referencia de ubicacion 6",
            "zonaFranca": false,
            "nombreUrbanizacion": "urbanizacion 6",
            "tipo": "oficina",
            "nombreEdificio": "edificio 6",
            "sinNombreEdificio": false,
            "piso": "3",
            "numeroDtoUOficina": "35",
            "sinNumeroDtoUOficina": false,
            "fotografiaDomicilio": "",
            "sucursales": "suscursal 6",
            "casaMatriz": true,
            "aprovacionContribuyente": true
        },
        {
            "id": 7,
            "nit": 10008670202,
            "name": "cofadena2",
            "latitud": "-16.49276495837333",
            "longitud": "-68.13431397048339",
            "ubicacion": "ubicacion 7",
            "tipoUbicacion": "tipo ubicacion 7",
            "referenciaUbicacion": "referencia de ubicacion 7",
            "zonaFranca": false,
            "nombreUrbanizacion": "urbanizacion 7",
            "tipo": "oficina",
            "nombreEdificio": "edificio 7",
            "sinNombreEdificio": false,
            "piso": "3",
            "numeroDtoUOficina": "35",
            "sinNumeroDtoUOficina": false,
            "fotografiaDomicilio": "",
            "sucursales": "suscursal 7",
            "casaMatriz": true,
            "aprovacionContribuyente": true
        },
        {
            "id": 8,
            "nit": 10008670202,
            "name": "cofadena8",
            "latitud": "-16.49276495837333",
            "longitud": "-68.13431397048339",
            "ubicacion": "ubicacion 8",
            "tipoUbicacion": "tipo ubicacion 8",
            "referenciaUbicacion": "referencia de ubicacion 8",
            "zonaFranca": false,
            "nombreUrbanizacion": "urbanizacion 8",
            "tipo": "oficina",
            "nombreEdificio": "edificio 8",
            "sinNombreEdificio": false,
            "piso": "3",
            "numeroDtoUOficina": "35",
            "sinNumeroDtoUOficina": false,
            "fotografiaDomicilio": "",
            "sucursales": "suscursal 8",
            "casaMatriz": true,
            "aprovacionContribuyente": true
        },
        {
            "id": 9,
            "nit": 10008670202,
            "name": "cofadena2",
            "latitud": "-16.49276495837333",
            "longitud": "-68.13431397048339",
            "ubicacion": "ubicacion 9",
            "tipoUbicacion": "tipo ubicacion 9",
            "referenciaUbicacion": "referencia de ubicacion 9",
            "zonaFranca": false,
            "nombreUrbanizacion": "urbanizacion 9",
            "tipo": "oficina",
            "nombreEdificio": "edificio 9",
            "sinNombreEdificio": false,
            "piso": "3",
            "numeroDtoUOficina": "35",
            "sinNumeroDtoUOficina": false,
            "fotografiaDomicilio": "",
            "sucursales": "suscursal 9",
            "casaMatriz": true,
            "aprovacionContribuyente": true
        },
        {
            "id": 9,
            "nit": 10008670202,
            "name": "cofadena2",
            "latitud": "-16.49276495837333",
            "longitud": "-68.13431397048339",
            "ubicacion": "ubicacion 9",
            "tipoUbicacion": "tipo ubicacion 9",
            "referenciaUbicacion": "referencia de ubicacion 9",
            "zonaFranca": false,
            "nombreUrbanizacion": "urbanizacion 9",
            "tipo": "oficina",
            "nombreEdificio": "edificio 9",
            "sinNombreEdificio": false,
            "piso": "3",
            "numeroDtoUOficina": "35",
            "sinNumeroDtoUOficina": false,
            "fotografiaDomicilio": "",
            "sucursales": "suscursal 9",
            "casaMatriz": true,
            "aprovacionContribuyente": true
        },
        {
            "id": 10,
            "nit": 10008670202,
            "name": "cofadena10",
            "latitud": "-16.49276495837333",
            "longitud": "-68.13431397048339",
            "ubicacion": "ubicacion 10",
            "tipoUbicacion": "tipo ubicacion 10",
            "referenciaUbicacion": "referencia de ubicacion 10",
            "zonaFranca": false,
            "nombreUrbanizacion": "urbanizacion 10",
            "tipo": "oficina",
            "nombreEdificio": "edificio 10",
            "sinNombreEdificio": false,
            "piso": "3",
            "numeroDtoUOficina": "35",
            "sinNumeroDtoUOficina": false,
            "fotografiaDomicilio": "",
            "sucursales": "suscursal 10",
            "casaMatriz": true,
            "aprovacionContribuyente": true
        },
        {
            "id": 11,
            "nit": 10008670202,
            "name": "cofadena11",
            "latitud": "-16.49276495837333",
            "longitud": "-68.13431397048339",
            "ubicacion": "ubicacion 11",
            "tipoUbicacion": "tipo ubicacion 11",
            "referenciaUbicacion": "referencia de ubicacion 11",
            "zonaFranca": false,
            "nombreUrbanizacion": "urbanizacion 11",
            "tipo": "oficina",
            "nombreEdificio": "edificio 11",
            "sinNombreEdificio": false,
            "piso": "3",
            "numeroDtoUOficina": "35",
            "sinNumeroDtoUOficina": false,
            "fotografiaDomicilio": "",
            "sucursales": "suscursal 11",
            "casaMatriz": true,
            "aprovacionContribuyente": true
        },
        {
            "id": 12,
            "nit": 10008670202,
            "name": "cofadena12",
            "latitud": "-16.49276495837333",
            "longitud": "-68.13431397048339",
            "ubicacion": "ubicacion 12",
            "tipoUbicacion": "tipo ubicacion 12",
            "referenciaUbicacion": "referencia de ubicacion 12",
            "zonaFranca": false,
            "nombreUrbanizacion": "urbanizacion 12",
            "tipo": "oficina",
            "nombreEdificio": "edificio 12",
            "sinNombreEdificio": false,
            "piso": "3",
            "numeroDtoUOficina": "35",
            "sinNumeroDtoUOficina": false,
            "fotografiaDomicilio": "",
            "sucursales": "suscursal 12",
            "casaMatriz": true,
            "aprovacionContribuyente": true
        },
        {
            "id": 13,
            "nit": 10008670202,
            "name": "cofadena213",
            "latitud": "-16.49276495837333",
            "longitud": "-68.13431397048339",
            "ubicacion": "ubicacion 13",
            "tipoUbicacion": "tipo ubicacion 13",
            "referenciaUbicacion": "referencia de ubicacion 13",
            "zonaFranca": false,
            "nombreUrbanizacion": "urbanizacion 13",
            "tipo": "oficina",
            "nombreEdificio": "edificio 13",
            "sinNombreEdificio": false,
            "piso": "3",
            "numeroDtoUOficina": "35",
            "sinNumeroDtoUOficina": false,
            "fotografiaDomicilio": "",
            "sucursales": "suscursal 13",
            "casaMatriz": true,
            "aprovacionContribuyente": true
        },
        {
            "id": 14,
            "nit": 10008670202,
            "name": "cofadena214",
            "latitud": "-16.49276495837333",
            "longitud": "-68.13431397048339",
            "ubicacion": "ubicacion 14",
            "tipoUbicacion": "tipo ubicacion 14",
            "referenciaUbicacion": "referencia de ubicacion 14",
            "zonaFranca": false,
            "nombreUrbanizacion": "urbanizacion 14",
            "tipo": "oficina",
            "nombreEdificio": "edificio 14",
            "sinNombreEdificio": false,
            "piso": "3",
            "numeroDtoUOficina": "35",
            "sinNumeroDtoUOficina": false,
            "fotografiaDomicilio": "",
            "sucursales": "suscursal 14",
            "casaMatriz": true,
            "aprovacionContribuyente": true
        },
        {
            "id": 15,
            "nit": 10008670202,
            "name": "cofadena215",
            "latitud": "-16.49276495837333",
            "longitud": "-68.13431397048339",
            "ubicacion": "ubicacion 15",
            "tipoUbicacion": "tipo ubicacion 15",
            "referenciaUbicacion": "referencia de ubicacion 15",
            "zonaFranca": false,
            "nombreUrbanizacion": "urbanizacion 15",
            "tipo": "oficina",
            "nombreEdificio": "edificio 15",
            "sinNombreEdificio": false,
            "piso": "3",
            "numeroDtoUOficina": "35",
            "sinNumeroDtoUOficina": false,
            "fotografiaDomicilio": "",
            "sucursales": "suscursal 15",
            "casaMatriz": true,
            "aprovacionContribuyente": true
        },
        {
            "id": 16,
            "nit": 10008670202,
            "name": "cofadena216",
            "latitud": "-16.49276495837333",
            "longitud": "-68.13431397048339",
            "ubicacion": "ubicacion 16",
            "tipoUbicacion": "tipo ubicacion 16",
            "referenciaUbicacion": "referencia de ubicacion 16",
            "zonaFranca": false,
            "nombreUrbanizacion": "urbanizacion 16",
            "tipo": "oficina",
            "nombreEdificio": "edificio 16",
            "sinNombreEdificio": false,
            "piso": "3",
            "numeroDtoUOficina": "35",
            "sinNumeroDtoUOficina": false,
            "fotografiaDomicilio": "",
            "sucursales": "suscursal 16",
            "casaMatriz": true,
            "aprovacionContribuyente": true
        },
        {
            "id": 17,
            "nit": 10008670202,
            "name": "cofadena217",
            "latitud": "-16.49276495837333",
            "longitud": "-68.13431397048339",
            "ubicacion": "ubicacion 17",
            "tipoUbicacion": "tipo ubicacion 17",
            "referenciaUbicacion": "referencia de ubicacion 17",
            "zonaFranca": false,
            "nombreUrbanizacion": "urbanizacion 17",
            "tipo": "oficina",
            "nombreEdificio": "edificio 17",
            "sinNombreEdificio": false,
            "piso": "3",
            "numeroDtoUOficina": "35",
            "sinNumeroDtoUOficina": false,
            "fotografiaDomicilio": "",
            "sucursales": "suscursal 17",
            "casaMatriz": true,
            "aprovacionContribuyente": true
        },
        {
            "id": 18,
            "nit": 10008670202,
            "name": "cofadena2",
            "latitud": "-16.49276495837333",
            "longitud": "-68.13431397048339",
            "ubicacion": "ubicacion 18",
            "tipoUbicacion": "tipo ubicacion 18",
            "referenciaUbicacion": "referencia de ubicacion 18",
            "zonaFranca": false,
            "nombreUrbanizacion": "urbanizacion 18",
            "tipo": "oficina",
            "nombreEdificio": "edificio 18",
            "sinNombreEdificio": false,
            "piso": "3",
            "numeroDtoUOficina": "35",
            "sinNumeroDtoUOficina": false,
            "fotografiaDomicilio": "",
            "sucursales": "suscursal 18",
            "casaMatriz": true,
            "aprovacionContribuyente": true
        },
        {
            "id": 19,
            "nit": 10008670202,
            "name": "cofadena19",
            "latitud": "-16.49276495837333",
            "longitud": "-68.13431397048339",
            "ubicacion": "ubicacion 19",
            "tipoUbicacion": "tipo ubicacion 19",
            "referenciaUbicacion": "referencia de ubicacion 19",
            "zonaFranca": false,
            "nombreUrbanizacion": "urbanizacion 19",
            "tipo": "oficina",
            "nombreEdificio": "edificio 19",
            "sinNombreEdificio": false,
            "piso": "3",
            "numeroDtoUOficina": "35",
            "sinNumeroDtoUOficina": false,
            "fotografiaDomicilio": "",
            "sucursales": "suscursal 19",
            "casaMatriz": true,
            "aprovacionContribuyente": true
        },
        {
            "id": 20,
            "nit": 10008670202,
            "name": "cofadena20",
            "latitud": "-16.49276495837333",
            "longitud": "-68.13431397048339",
            "ubicacion": "ubicacion 20",
            "tipoUbicacion": "tipo ubicacion 20",
            "referenciaUbicacion": "referencia de ubicacion 20",
            "zonaFranca": false,
            "nombreUrbanizacion": "urbanizacion 20",
            "tipo": "oficina",
            "nombreEdificio": "edificio 20",
            "sinNombreEdificio": false,
            "piso": "3",
            "numeroDtoUOficina": "35",
            "sinNumeroDtoUOficina": false,
            "fotografiaDomicilio": "",
            "sucursales": "suscursal 20",
            "casaMatriz": true,
            "aprovacionContribuyente": true
        },
        {
            "id": 21,
            "nit": 10008670202,
            "name": "cofadena21",
            "latitud": "-16.49276495837333",
            "longitud": "-68.13431397048339",
            "ubicacion": "ubicacion 21",
            "tipoUbicacion": "tipo ubicacion 21",
            "referenciaUbicacion": "referencia de ubicacion 21",
            "zonaFranca": false,
            "nombreUrbanizacion": "urbanizacion 21",
            "tipo": "oficina",
            "nombreEdificio": "edificio 21",
            "sinNombreEdificio": false,
            "piso": "3",
            "numeroDtoUOficina": "35",
            "sinNumeroDtoUOficina": false,
            "fotografiaDomicilio": "",
            "sucursales": "suscursal 21",
            "casaMatriz": true,
            "aprovacionContribuyente": true
        },
        {
            "id": 22,
            "nit": 10008670202,
            "name": "cofadena22",
            "latitud": "-16.49276495837333",
            "longitud": "-68.13431397048339",
            "ubicacion": "ubicacion 22",
            "tipoUbicacion": "tipo ubicacion 22",
            "referenciaUbicacion": "referencia de ubicacion 22",
            "zonaFranca": false,
            "nombreUrbanizacion": "urbanizacion 22",
            "tipo": "oficina",
            "nombreEdificio": "edificio 22",
            "sinNombreEdificio": false,
            "piso": "3",
            "numeroDtoUOficina": "35",
            "sinNumeroDtoUOficina": false,
            "fotografiaDomicilio": "",
            "sucursales": "suscursal 22",
            "casaMatriz": true,
            "aprovacionContribuyente": true
        }, {
            "id": 23,
            "nit": 10008670202,
            "name": "cofadena23",
            "latitud": "-16.49276495837333",
            "longitud": "-68.13431397048339",
            "ubicacion": "ubicacion 23",
            "tipoUbicacion": "tipo ubicacion 23",
            "referenciaUbicacion": "referencia de ubicacion 23",
            "zonaFranca": false,
            "nombreUrbanizacion": "urbanizacion 23",
            "tipo": "oficina",
            "nombreEdificio": "edificio 23",
            "sinNombreEdificio": false,
            "piso": "3",
            "numeroDtoUOficina": "35",
            "sinNumeroDtoUOficina": false,
            "fotografiaDomicilio": "",
            "sucursales": "suscursal 23",
            "casaMatriz": true,
            "aprovacionContribuyente": true
        },
        {
            "id": 24,
            "nit": 10008670202,
            "name": "cofadena24",
            "latitud": "-16.49276495837333",
            "longitud": "-68.13431397048339",
            "ubicacion": "ubicacion 24",
            "tipoUbicacion": "tipo ubicacion 24",
            "referenciaUbicacion": "referencia de ubicacion 24",
            "zonaFranca": false,
            "nombreUrbanizacion": "urbanizacion 24",
            "tipo": "oficina",
            "nombreEdificio": "edificio 24",
            "sinNombreEdificio": false,
            "piso": "3",
            "numeroDtoUOficina": "35",
            "sinNumeroDtoUOficina": false,
            "fotografiaDomicilio": "",
            "sucursales": "suscursal 24",
            "casaMatriz": true,
            "aprovacionContribuyente": true
        },
        {
            "id": 25,
            "nit": 10008670202,
            "name": "cofadena25",
            "latitud": "-16.49276495837333",
            "longitud": "-68.13431397048339",
            "ubicacion": "ubicacion 25",
            "tipoUbicacion": "tipo ubicacion 25",
            "referenciaUbicacion": "referencia de ubicacion 25",
            "zonaFranca": false,
            "nombreUrbanizacion": "urbanizacion 25",
            "tipo": "oficina",
            "nombreEdificio": "edificio 25",
            "sinNombreEdificio": false,
            "piso": "3",
            "numeroDtoUOficina": "35",
            "sinNumeroDtoUOficina": false,
            "fotografiaDomicilio": "",
            "sucursales": "suscursal 25",
            "casaMatriz": true,
            "aprovacionContribuyente": true
        }
    ]
  }
